[
  {
    "month": "FY20 Jul",
    "consumption": 1677982.8622175,
    "shipment": 1688207.1063363,
    "last_year_consumption": 2007106.795685,
    "last_year_shipment": 1794762.5976154,
    "consumption_iya": 83.6020716897042,
    "shipment_iya": 94.0629757149679,
    "flag": 1
  },
  {
    "month": "FY20 Aug",
    "consumption": 1603432.2923698,
    "shipment": 1689443.8649527,
    "last_year_consumption": 1606929.2028436,
    "last_year_shipment": 1580676.6283288,
    "consumption_iya": 99.7823855296417,
    "shipment_iya": 106.88105553498899,
    "flag": 1
  },
  {
    "month": "FY20 Sep",
    "consumption": 2084993.7310901,
    "shipment": 2104490.1607956,
    "last_year_consumption": 2059969.8785504,
    "last_year_shipment": 2145650.4892714,
    "consumption_iya": 101.214767885699,
    "shipment_iya": 98.0816853126076,
    "flag": 1
  },
  {
    "month": "FY21 Jul",
    "consumption": 2025883.6625437,
    "shipment": 2055359.9737828,
    "last_year_consumption": 1677982.8622175,
    "last_year_shipment": 1688207.1063363,
    "consumption_iya": 120.733274943371,
    "shipment_iya": 121.748093943479,
    "flag": 0
  },
  {
    "month": "FY21 Aug",
    "consumption": 2480299.075031,
    "shipment": 2606271.7746502,
    "last_year_consumption": 1603432.2923698,
    "last_year_shipment": 1689443.8649527,
    "consumption_iya": 154.686860607331,
    "shipment_iya": 154.268030368868,
    "flag": 0
  },
  {
    "month": "FY21 Sep",
    "consumption": 2061734.9817953,
    "shipment": 2077154.2316283,
    "last_year_consumption": 2084993.7310901,
    "last_year_shipment": 2104490.1607956,
    "consumption_iya": 98.88446910185,
    "shipment_iya": 98.7010664304096,
    "flag": 0
  }
]
